[gd_scene load_steps=3 format=3 uid="uid://53flo332b3sk"]

[ext_resource type="Script" path="res://scripts/UI/TooltipGroup.gd" id="1_1l32h"]
[ext_resource type="FontFile" uid="uid://cgqct5de18gvi" path="res://assets/fonts/m6x11plus.ttf" id="2_im8ex"]

[node name="Heading" type="VBoxContainer"]
theme_override_constants/separation = 0
script = ExtResource("1_1l32h")

[node name="Name" type="Label" parent="."]
layout_mode = 2
theme_override_colors/font_color = Color(0, 0.361466, 0.302666, 1)
theme_override_fonts/font = ExtResource("2_im8ex")
theme_override_font_sizes/font_size = 18
text = "Group 1"
